…
There are 37.7% of the entrances/exits without vending allow entrance.

Make Route Number Distinct Variable

``` r
nyc_df %>% 
  pivot_longer(
    route1:route11,
    names_to = "route_number",
    values_to = "route"
  )
```

    ## # A tibble: 20,548 × 11
    ##    line     statio…¹ stati…² stati…³ entry exit_…⁴ vending entra…⁵ ada   route…⁶
    ##    <chr>    <chr>      <dbl>   <dbl> <lgl> <chr>   <chr>   <chr>   <lgl> <chr>  
    ##  1 4 Avenue 25th St     40.7   -74.0 TRUE  <NA>    YES     Stair   FALSE route1 
    ##  2 4 Avenue 25th St     40.7   -74.0 TRUE  <NA>    YES     Stair   FALSE route2 
    ##  3 4 Avenue 25th St     40.7   -74.0 TRUE  <NA>    YES     Stair   FALSE route3 
    ##  4 4 Avenue 25th St     40.7   -74.0 TRUE  <NA>    YES     Stair   FALSE route4 
    ##  5 4 Avenue 25th St     40.7   -74.0 TRUE  <NA>    YES     Stair   FALSE route5 
    ##  6 4 Avenue 25th St     40.7   -74.0 TRUE  <NA>    YES     Stair   FALSE route6 
    ##  7 4 Avenue 25th St     40.7   -74.0 TRUE  <NA>    YES     Stair   FALSE route7 
    ##  8 4 Avenue 25th St     40.7   -74.0 TRUE  <NA>    YES     Stair   FALSE route8 
    ##  9 4 Avenue 25th St     40.7   -74.0 TRUE  <NA>    YES     Stair   FALSE route9 
    ## 10 4 Avenue 25th St     40.7   -74.0 TRUE  <NA>    YES     Stair   FALSE route10
    ## # … with 20,538 more rows, 1 more variable: route <chr>, and abbreviated
    ## #   variable names ¹​station_name, ²​station_latitude, ³​station_longitude,
    ## #   ⁴​exit_only, ⁵​entrance_type, ⁶​route_number
